[gd_scene load_steps=3 format=2]

[ext_resource path="res://HUD.gd" type="Script" id=1]
[ext_resource path="res://art/font.tres" type="DynamicFont" id=2]

[node name="HUD" type="CanvasLayer" index="0"]

layer = 1
offset = Vector2( 0, 0 )
rotation = 0.0
scale = Vector2( 1, 1 )
transform = Transform2D( 1, 0, 0, 1, 0, 0 )
script = ExtResource( 1 )

[node name="OScore" type="Label" parent="." index="0"]

modulate = Color( 0, 0.698039, 0.109804, 1 )
anchor_left = 0.0
anchor_top = 0.5
anchor_right = 0.0
anchor_bottom = 0.5
margin_top = -50.0
margin_right = 100.0
margin_bottom = 50.0
rect_pivot_offset = Vector2( 0, 0 )
rect_clip_content = false
mouse_filter = 2
mouse_default_cursor_shape = 0
size_flags_horizontal = 1
size_flags_vertical = 4
custom_fonts/font = ExtResource( 2 )
text = "0"
align = 1
valign = 1
percent_visible = 1.0
lines_skipped = 0
max_lines_visible = -1
_sections_unfolded = [ "custom_fonts" ]

[node name="XScore" type="Label" parent="." index="1"]

modulate = Color( 1, 0.0980392, 0.298039, 1 )
anchor_left = 1.0
anchor_top = 0.5
anchor_right = 1.0
anchor_bottom = 0.5
margin_left = -100.0
margin_top = -50.0
margin_bottom = 50.0
rect_pivot_offset = Vector2( 0, 0 )
rect_clip_content = false
mouse_filter = 2
mouse_default_cursor_shape = 0
size_flags_horizontal = 1
size_flags_vertical = 4
custom_fonts/font = ExtResource( 2 )
text = "0"
align = 1
valign = 1
percent_visible = 1.0
lines_skipped = 0
max_lines_visible = -1
_sections_unfolded = [ "Visibility", "custom_fonts" ]

[node name="ResetButton" type="Button" parent="." index="2"]

anchor_left = 1.0
anchor_top = 1.0
anchor_right = 1.0
anchor_bottom = 1.0
margin_left = -125.0
margin_top = -125.0
margin_right = -25.0
margin_bottom = -25.0
rect_pivot_offset = Vector2( 0, 0 )
rect_clip_content = false
focus_mode = 2
mouse_filter = 0
mouse_default_cursor_shape = 0
size_flags_horizontal = 1
size_flags_vertical = 1
toggle_mode = false
enabled_focus_mode = 2
shortcut = null
group = null
text = "Reset"
flat = false
align = 1
_sections_unfolded = [ "Margin" ]

[connection signal="pressed" from="ResetButton" to="." method="reset"]


