[gd_scene load_steps=4 format=2]

[ext_resource path="res://Main.gd" type="Script" id=1]
[ext_resource path="res://PlayBoard.tscn" type="PackedScene" id=2]
[ext_resource path="res://HUD.tscn" type="PackedScene" id=3]

[node name="Main" type="Node" index="0"]

script = ExtResource( 1 )

[node name="PlayBoard" parent="." index="0" instance=ExtResource( 2 )]

margin_left = -205.0
margin_top = -205.0
margin_right = 205.0
margin_bottom = 205.0
_sections_unfolded = [ "Anchor", "Rect" ]

[node name="CanvasLayer" parent="." index="1" instance=ExtResource( 3 )]

[connection signal="win" from="PlayBoard" to="." method="process_win"]

[connection signal="reset_game" from="CanvasLayer" to="." method="reset"]


